^C:\USERS\SZYMON\DESKTOP\PAMSI\SPR LAB 7I8\GRAFY_TABLICA_SASIECTWA\GRAFY\KRAWEDZ.H|C:\USERS\SZYMON\DESKTOP\PAMSI\SPR LAB 7I8\GRAFY_TABLICA_SASIECTWA\GRAFY\LISTA.H|C:\USERS\SZYMON\DESKTOP\PAMSI\SPR LAB 7I8\GRAFY_TABLICA_SASIECTWA\GRAFY\ŹRÓDŁO.CPP
C:\USERS\SZYMON\DESKTOP\PAMSI\SPR LAB 7I8\GRAFY_TABLICA_SASIECTWA\GRAFY\RELEASE\VC141.PDB
C:\USERS\SZYMON\DESKTOP\PAMSI\SPR LAB 7I8\GRAFY_TABLICA_SASIECTWA\GRAFY\RELEASE\ŹRóDłO.OBJ
C:\USERS\SZYMON\DESKTOP\PAMSI\SPR LAB 7I8\GRAFY_TABLICA_SASIECTWA\GRAFY\RELEASE\LISTA.OBJ
C:\USERS\SZYMON\DESKTOP\PAMSI\SPR LAB 7I8\GRAFY_TABLICA_SASIECTWA\GRAFY\RELEASE\KRAWEDZ.OBJ
^C:\USERS\SZYMON\DESKTOP\PAMSI\SPR LAB 7I8\GRAFY_TABLICA_SASIECTWA\GRAFY\KRAWEDZ.H
C:\USERS\SZYMON\DESKTOP\PAMSI\SPR LAB 7I8\GRAFY_TABLICA_SASIECTWA\GRAFY\RELEASE\VC141.PDB
^C:\USERS\SZYMON\DESKTOP\PAMSI\SPR LAB 7I8\GRAFY_TABLICA_SASIECTWA\GRAFY\LISTA.H
C:\USERS\SZYMON\DESKTOP\PAMSI\SPR LAB 7I8\GRAFY_TABLICA_SASIECTWA\GRAFY\RELEASE\VC141.PDB
^C:\USERS\SZYMON\DESKTOP\PAMSI\SPR LAB 7I8\GRAFY_TABLICA_SASIECTWA\GRAFY\ŹRÓDŁO.CPP
C:\USERS\SZYMON\DESKTOP\PAMSI\SPR LAB 7I8\GRAFY_TABLICA_SASIECTWA\GRAFY\RELEASE\VC141.PDB
C:\USERS\SZYMON\DESKTOP\PAMSI\SPR LAB 7I8\GRAFY_TABLICA_SASIECTWA\GRAFY\RELEASE\ŹRóDłO.OBJ
